{
  "project_info": {
    "project_number": "439676735838",
    "firebase_url": "https://organic-635ef.firebaseio.com",
    "project_id": "organic-635ef",
    "storage_bucket": "organic-635ef.appspot.com"
  },
  "client": [
    {
      "client_info": {
        "mobilesdk_app_id": "1:439676735838:android:dbf22944877efe82b0ffcf",
        "android_client_info": {
          "package_name": "com.organic"
        }
      },
      "oauth_client": [
        {
          "client_id": "439676735838-a41taj6uumttpk081ogrifd57s6abv4c.apps.googleusercontent.com",
          "client_type": 3
        }
      ],
      "api_key": [
        {
          "current_key": "AIzaSyDft4pkVKtUCcM0-73ZKSUXuHGqCE4Q2Zw"
        }
      ],
      "services": {
        "appinvite_service": {
          "other_platform_oauth_client": [
            {
              "client_id": "439676735838-a41taj6uumttpk081ogrifd57s6abv4c.apps.googleusercontent.com",
              "client_type": 3
            },
            {
              "client_id": "439676735838-5d09l2pq2q6uaejk3ol0srba2prr9sh4.apps.googleusercontent.com",
              "client_type": 2,
              "ios_info": {
                "bundle_id": "com.organic.com"
              }
            }
          ]
        }
      }
    },
    {
      "client_info": {
        "mobilesdk_app_id": "1:439676735838:android:6a7fced4f674285fb0ffcf",
        "android_client_info": {
          "package_name": "com.organic.android"
        }
      },
      "oauth_client": [
        {
          "client_id": "439676735838-a41taj6uumttpk081ogrifd57s6abv4c.apps.googleusercontent.com",
          "client_type": 3
        }
      ],
      "api_key": [
        {
          "current_key": "AIzaSyDft4pkVKtUCcM0-73ZKSUXuHGqCE4Q2Zw"
        }
      ],
      "services": {
        "appinvite_service": {
          "other_platform_oauth_client": [
            {
              "client_id": "439676735838-a41taj6uumttpk081ogrifd57s6abv4c.apps.googleusercontent.com",
              "client_type": 3
            },
            {
              "client_id": "439676735838-5d09l2pq2q6uaejk3ol0srba2prr9sh4.apps.googleusercontent.com",
              "client_type": 2,
              "ios_info": {
                "bundle_id": "com.organic.com"
              }
            }
          ]
        }
      }
    }
  ],
  "configuration_version": "1"
}